﻿  000int.cpp
D:\UIT\Nhap mon CNTT\20520027_03\000int\000int.cpp(40,13): warning C4244: 'argument': conversion from 'time_t' to 'unsigned int', possible loss of data
  000int.vcxproj -> D:\UIT\Nhap mon CNTT\20520027_03\x64\Debug\000int.exe
